{
  "_id": "aa0241d7-bcf8-47a9-83db-5d3fab55c7e5",
  "_self": {
    "id": "aa0241d7-bcf8-47a9-83db-5d3fab55c7e5",
    "name": "name",
    "self": "/api/publicaties/aa0241d7-bcf8-47a9-83db-5d3fab55c7e5",
    "schema": {
      "id": "40c1041c-1526-4494-b191-244fdd30aefd",
      "name": "Publicatie",
      "ref": "https://commongateway.nl/woo.publicatie.schema.json"
    },
    "level": 1,
    "dateCreated": "2024-04-18T05:53:22+00:00",
    "dateModified": "2024-04-18T08:26:43+00:00",
    "database": {
      "id": "1f7f0a42-4341-4226-82d4-c175c06ef509",
      "name": "Acc IO",
      "ref": "https://commongateway.nl/database/woo.acc.io.database.json"
    },
    "owner": {
      "id": "0a576c72-14ba-4635-9747-332050f673da",
      "name": "APIKEY_USER",
      "ref": null
    },
    "organization": {
      "id": "525ae8fe-2e14-4840-90cc-d3ac7b6c55a3",
      "name": "IO",
      "ref": null
    },
    "application": {
      "id": null,
      "name": null,
      "ref": null
    },
    "synchronizations": null
  },
  "id": "aa0241d7-bcf8-47a9-83db-5d3fab55c7e5",
  "titel": "title",
  "beschrijving": "beschrijving",
  "samenvatting": "samenvatting",
  "categorie": "Woo-verzoeken en -besluiten",
  "portalUrl": "https://site_name/openwoo-publications/7",
  "publicatiedatum": "2024-04-09",
  "organisatie": {
    "_self": {
      "id": "1271fa8c-7ab6-46e9-ac22-b76231271bcf",
      "name": "Gemeente Eemsdelta",
      "self": "/api/organisatie/1271fa8c-7ab6-46e9-ac22-b76231271bcf",
      "schema": {
        "id": "cf17b16d-db62-4512-a02c-0afe7b5c78be",
        "name": "Organisatie",
        "ref": "https://commongateway.nl/woo.organisatie.schema.json"
      },
      "level": 2,
      "dateCreated": "2024-04-18T05:53:23+00:00",
      "dateModified": "2024-04-18T08:26:43+00:00",
      "database": {
        "id": "1f7f0a42-4341-4226-82d4-c175c06ef509",
        "name": "Acc IO",
        "ref": "https://commongateway.nl/database/woo.acc.io.database.json"
      },
      "owner": {
        "id": "0a576c72-14ba-4635-9747-332050f673da",
        "name": "APIKEY_USER",
        "ref": null
      },
      "organization": {
        "id": "525ae8fe-2e14-4840-90cc-d3ac7b6c55a3",
        "name": "IO",
        "ref": null
      },
      "application": {
        "id": null,
        "name": null,
        "ref": null
      },
      "synchronizations": null
    },
    "id": null,
    "uuid": null,
    "oin": "00000001826228379000",
    "tooi": "testtooi",
    "rsin": "fdhfghgfh",
    "naam": "Gemeente Eemsdelta"
  },
  "themas": [
    {
      "_self": {
        "id": "7608a614-d908-4055-9d86-d6c2dc13001e",
        "name": "No name could be established for this entity",
        "self": "/api/objects/7608a614-d908-4055-9d86-d6c2dc13001e",
        "schema": {
          "id": "8e349495-f4f7-4a94-b0d3-74368670b68f",
          "name": "Thema",
          "ref": "https://commongateway.nl/woo.thema.schema.json"
        },
        "level": 2,
        "dateCreated": "2024-04-18T08:26:43+00:00",
        "dateModified": "2024-04-18T08:26:43+00:00",
        "database": {
          "id": "1f7f0a42-4341-4226-82d4-c175c06ef509",
          "name": "Acc IO",
          "ref": "https://commongateway.nl/database/woo.acc.io.database.json"
        },
        "owner": {
          "id": "0a576c72-14ba-4635-9747-332050f673da",
          "name": "APIKEY_USER",
          "ref": null
        },
        "organization": {
          "id": "525ae8fe-2e14-4840-90cc-d3ac7b6c55a3",
          "name": "IO",
          "ref": null
        },
        "application": {
          "id": null,
          "name": null,
          "ref": null
        },
        "synchronizations": null
      },
      "hoofdthema": "addfdfafdadaffda",
      "subthema": "sdghdfhgf",
      "aanvullendThema": "dfhfdhd"
    }
  ],
  "gepubliceerd": true,
  "metadata": {
    "_self": {
      "id": "f4e3f479-6231-40fa-9a37-78ecb9f49dc4",
      "name": "No name could be established for this entity",
      "self": null,
      "schema": {
        "id": "6bedfb95-3367-4ef1-92d7-194a04684e56",
        "name": "Metadata",
        "ref": "https://commongateway.nl/woo.metadata.schema.json"
      },
      "level": 2,
      "dateCreated": "2024-04-18T05:53:22+00:00",
      "dateModified": "2024-04-18T08:26:43+00:00",
      "database": {
        "id": "1f7f0a42-4341-4226-82d4-c175c06ef509",
        "name": "Acc IO",
        "ref": "https://commongateway.nl/database/woo.acc.io.database.json"
      },
      "owner": {
        "id": "0a576c72-14ba-4635-9747-332050f673da",
        "name": "APIKEY_USER",
        "ref": null
      },
      "organization": {
        "id": "525ae8fe-2e14-4840-90cc-d3ac7b6c55a3",
        "name": "IO",
        "ref": null
      },
      "application": {
        "id": null,
        "name": null,
        "ref": null
      },
      "synchronizations": null
    },
    "verzoek": {
      "_self": {
        "id": "afdb7c7d-de4b-4751-bdf0-67cc50d199b7",
        "name": "No name could be established for this entity",
        "self": "/api/objects/afdb7c7d-de4b-4751-bdf0-67cc50d199b7",
        "schema": {
          "id": "eea75c78-acda-401c-a51a-d10a5d08a03f",
          "name": "Verzoek",
          "ref": "https://commongateway.nl/woo.verzoek.schema.json"
        },
        "level": 3,
        "dateCreated": "2024-04-18T05:53:22+00:00",
        "dateModified": "2024-04-18T08:26:43+00:00",
        "database": {
          "id": "1f7f0a42-4341-4226-82d4-c175c06ef509",
          "name": "Acc IO",
          "ref": "https://commongateway.nl/database/woo.acc.io.database.json"
        },
        "owner": {
          "id": "0a576c72-14ba-4635-9747-332050f673da",
          "name": "APIKEY_USER",
          "ref": null
        },
        "organization": {
          "id": "525ae8fe-2e14-4840-90cc-d3ac7b6c55a3",
          "name": "IO",
          "ref": null
        },
        "application": {
          "id": null,
          "name": null,
          "ref": null
        },
        "synchronizations": null
      },
      "status": "dhfdh",
      "ontvangerInformatieverzoek": "dfhfh",
      "ontvangstdatum": "",
      "termijnoverschrijding": "dfghgf",
      "besluit": {
        "_self": {
          "id": "5a001b87-353c-400c-8894-14061bb9ecfb",
          "name": "dfghdh",
          "self": "/api/objects/5a001b87-353c-400c-8894-14061bb9ecfb",
          "schema": {
            "id": "19f8969e-ebda-43a8-bbb7-a04332471a30",
            "name": "Bijlage",
            "ref": "https://commongateway.nl/woo.bijlage.schema.json"
          },
          "level": 3,
          "dateCreated": "2024-04-18T05:53:23+00:00",
          "dateModified": "2024-04-18T08:26:43+00:00",
          "database": {
            "id": "1f7f0a42-4341-4226-82d4-c175c06ef509",
            "name": "Acc IO",
            "ref": "https://commongateway.nl/database/woo.acc.io.database.json"
          },
          "owner": {
            "id": "0a576c72-14ba-4635-9747-332050f673da",
            "name": "APIKEY_USER",
            "ref": null
          },
          "organization": {
            "id": "525ae8fe-2e14-4840-90cc-d3ac7b6c55a3",
            "name": "IO",
            "ref": null
          },
          "application": {
            "id": null,
            "name": null,
            "ref": null
          },
          "synchronizations": null
        },
        "extension": null,
        "id": null,
        "titel": "dfghdh",
        "url": "dfhh",
        "status": "dfhd",
        "type": "dfhh",
        "categorie": null
      },
      "informatieverzoek": {
        "_self": {
          "id": "1f4cefd1-41d1-44e6-93dd-04b2a44d9d74",
          "name": "dfhdfh",
          "self": "/api/objects/1f4cefd1-41d1-44e6-93dd-04b2a44d9d74",
          "schema": {
            "id": "19f8969e-ebda-43a8-bbb7-a04332471a30",
            "name": "Bijlage",
            "ref": "https://commongateway.nl/woo.bijlage.schema.json"
          },
          "level": 3,
          "dateCreated": "2024-04-18T05:53:23+00:00",
          "dateModified": "2024-04-18T08:26:43+00:00",
          "database": {
            "id": "1f7f0a42-4341-4226-82d4-c175c06ef509",
            "name": "Acc IO",
            "ref": "https://commongateway.nl/database/woo.acc.io.database.json"
          },
          "owner": {
            "id": "0a576c72-14ba-4635-9747-332050f673da",
            "name": "APIKEY_USER",
            "ref": null
          },
          "organization": {
            "id": "525ae8fe-2e14-4840-90cc-d3ac7b6c55a3",
            "name": "IO",
            "ref": null
          },
          "application": {
            "id": null,
            "name": null,
            "ref": null
          },
          "synchronizations": null
        },
        "documentText": null,
        "extension": null,
        "id": null,
        "titel": "dfhdfh",
        "url": "dhfdh",
        "status": "dfdhdfd",
        "type": "dfhgdh",
        "categorie": null
      },
      "inventarisatielijst": {
        "_self": {
          "id": "5a747e3f-f1d2-42fd-bf82-b02c585e03e7",
          "name": "dfhfdh",
          "self": "/api/objects/5a747e3f-f1d2-42fd-bf82-b02c585e03e7",
          "schema": {
            "id": "19f8969e-ebda-43a8-bbb7-a04332471a30",
            "name": "Bijlage",
            "ref": "https://commongateway.nl/woo.bijlage.schema.json"
          },
          "level": 3,
          "dateCreated": "2024-04-18T05:53:23+00:00",
          "dateModified": "2024-04-18T08:26:43+00:00",
          "database": {
            "id": "1f7f0a42-4341-4226-82d4-c175c06ef509",
            "name": "Acc IO",
            "ref": "https://commongateway.nl/database/woo.acc.io.database.json"
          },
          "owner": {
            "id": "0a576c72-14ba-4635-9747-332050f673da",
            "name": "APIKEY_USER",
            "ref": null
          },
          "organization": {
            "id": "525ae8fe-2e14-4840-90cc-d3ac7b6c55a3",
            "name": "IO",
            "ref": null
          },
          "application": {
            "id": null,
            "name": null,
            "ref": null
          },
          "synchronizations": null
        },
        "documentText": null,
        "extension": null,
        "id": null,
        "titel": "dfhfdh",
        "url": "dfhfd",
        "status": "dfhhd",
        "type": "dfghdhfgh",
        "categorie": null
      }
    },
    "volgnummer": "fdhdhfgd",
    "besluitdatum": ""
  },
  "bijlagen": [
    {
      "_self": {
        "id": "bcc9b831-07b1-4e85-94d3-ce9759e0882e",
        "name": "testDOC - Copy",
        "self": "/api/objects/bcc9b831-07b1-4e85-94d3-ce9759e0882e",
        "schema": {
          "id": "19f8969e-ebda-43a8-bbb7-a04332471a30",
          "name": "Bijlage",
          "ref": "https://commongateway.nl/woo.bijlage.schema.json"
        },
        "level": 2,
        "dateCreated": "2024-04-18T08:26:43+00:00",
        "dateModified": "2024-04-18T08:26:43+00:00",
        "database": {
          "id": "1f7f0a42-4341-4226-82d4-c175c06ef509",
          "name": "Acc IO",
          "ref": "https://commongateway.nl/database/woo.acc.io.database.json"
        },
        "owner": {
          "id": "0a576c72-14ba-4635-9747-332050f673da",
          "name": "APIKEY_USER",
          "ref": null
        },
        "organization": {
          "id": "525ae8fe-2e14-4840-90cc-d3ac7b6c55a3",
          "name": "IO",
          "ref": null
        },
        "application": {
          "id": null,
          "name": null,
          "ref": null
        },
        "synchronizations": null
      },
      "documentText": null,
      "extension": null,
      "id": null,
      "titel": "testDOC - Copy",
      "url": "https://cleandrupalsite.ddev.site/sites/default/files/2024-04/testDOC%20-%20Copy.txt",
      "status": "published",
      "type": "text/plain",
      "categorie": null
    },
    {
      "_self": {
        "id": "ba1e935d-515a-4c65-a38f-1f8488933b26",
        "name": "testDOC",
        "self": "/api/objects/ba1e935d-515a-4c65-a38f-1f8488933b26",
        "schema": {
          "id": "19f8969e-ebda-43a8-bbb7-a04332471a30",
          "name": "Bijlage",
          "ref": "https://commongateway.nl/woo.bijlage.schema.json"
        },
        "level": 2,
        "dateCreated": "2024-04-18T08:26:43+00:00",
        "dateModified": "2024-04-18T08:26:43+00:00",
        "database": {
          "id": "1f7f0a42-4341-4226-82d4-c175c06ef509",
          "name": "Acc IO",
          "ref": "https://commongateway.nl/database/woo.acc.io.database.json"
        },
        "owner": {
          "id": "0a576c72-14ba-4635-9747-332050f673da",
          "name": "APIKEY_USER",
          "ref": null
        },
        "organization": {
          "id": "525ae8fe-2e14-4840-90cc-d3ac7b6c55a3",
          "name": "IO",
          "ref": null
        },
        "application": {
          "id": null,
          "name": null,
          "ref": null
        },
        "synchronizations": null
      },
      "documentText": null,
      "extension": null,
      "id": null,
      "titel": "testDOC",
      "url": "https://cleandrupalsite.ddev.site/sites/default/files/2024-04/testDOC_1.txt",
      "status": "published",
      "type": "text/plain",
      "categorie": null
    }
  ]
}
